output.log
[2024-10-28 16:16:07 UTC] vlib work && vlog '-timescale' '1ns/1ns' design.sv testbench.sv  && vsim -c -do "vsim +access+r; run -all; exit"  
VSIMSA: Configuration file changed: `/home/runner/library.cfg'
ALIB: Library "work" attached.
work = /home/runner/work/work.lib
WARNING VCP2947 "Default parameter values used for class std::mailbox specialization." "generator.sv" 3  14
WARNING VCP2947 "Default parameter values used for class std::mailbox specialization." "generator.sv" 4  27
WARNING VCP2947 "Default parameter values used for class std::mailbox specialization." "driver.sv" 3  14
WARNING VCP2947 "Default parameter values used for class std::mailbox specialization." "driver.sv" 5  27
WARNING VCP2947 "Default parameter values used for class std::mailbox specialization." "monitor.sv" 3  14
WARNING VCP2947 "Default parameter values used for class std::mailbox specialization." "monitor.sv" 5  27
WARNING VCP2947 "Default parameter values used for class std::mailbox specialization." "scoreboard.sv" 3  14
WARNING VCP2947 "Default parameter values used for class std::mailbox specialization." "scoreboard.sv" 4  27
WARNING VCP2947 "Default parameter values used for class std::mailbox specialization." "environment.sv" 6  14
WARNING VCP2947 "Default parameter values used for class std::mailbox specialization." "environment.sv" 7  14
WARNING VCP2803 "Function this.t.randomize result is ignored." "generator.sv" 9  18
MESSAGE "Unit top modules: tb_top."
SUCCESS "Compile success 0 Errors 11 Warnings  Analysis time: 0[s]."
done
# Aldec, Inc. Riviera-PRO version 2023.04.112.8911 built for Linux64 on May 12, 2023.
# HDL, SystemC, and Assertions simulator, debugger, and design environment.
# (c) 1999-2023 Aldec, Inc. All rights reserved.
# ELBREAD: Elaboration process.
# ELBREAD: Elaboration time 0.0 [s].
# KERNEL: Main thread initiated.
# KERNEL: Kernel process initialization phase.
# ELAB2: Elaboration final pass...
# KERNEL: PLI/VHPI kernel's engine initialization done.
# PLI: Loading library '/usr/share/Riviera-PRO/bin/libsystf.so'
# ELAB2: Create instances ...
# KERNEL: Time resolution set to 1ns.
# ELAB2: Create instances complete.
# SLP: Started
# SLP: Elaboration phase ...
# SLP: Elaboration phase ... done : 0.0 [s]
# SLP: Generation phase ...
# SLP: Generation phase ... done : 0.1 [s]
# SLP: Finished : 0.1 [s]
# SLP: 0 primitives and 3 (75.00%) other processes in SLP
# SLP: 5 (1.30%) signals in SLP and 15 (3.91%) interface signals
# ELAB2: Elaboration final pass complete - time: 0.1 [s].
# KERNEL: SLP loading done - time: 0.0 [s].
# KERNEL: Warning: You are using the Riviera-PRO EDU Edition. The performance of simulation is reduced.
# KERNEL: Warning: Contact Aldec for available upgrade options - sales@aldec.com.
# KERNEL: SLP simulation initialization done - time: 0.0 [s].
# KERNEL: Kernel process initialization done.
# Allocation: Simulator allocated 5626 kB (elbread=459 elab2=4996 kernel=169 sdf=0)
# KERNEL: ASDB file was created in location /home/runner/dataset.asdb
# KERNEL: -------------Generator Class Signals---------------
# KERNEL: OperandA=10100101001000111000110011101101 , OperandB=1111111110000011010101011000101 , op_code=1000 , data_out=xxxxxxxxxxxxxxxxxxxxxxxxxxxxxxxxxxxxxxxxxxxxxxxxxxxxxxxxxxxxxxxx
# KERNEL: -------------Driver Class Signals---------------
# KERNEL: OperandA=10100101001000111000110011101101 , OperandB=1111111110000011010101011000101 , op_code=1000 , data_out=xxxxxxxxxxxxxxxxxxxxxxxxxxxxxxxxxxxxxxxxxxxxxxxxxxxxxxxxxxxxxxxx
# KERNEL: -------------Monitor Class Signals---------------
# KERNEL: OperandA=10100101001000111000110011101101 , OperandB=1111111110000011010101011000101 , op_code=1000 , data_out=101001010010001110001100111011
# KERNEL: -------------Scoreboard Signals---------------
# KERNEL: OperandA=10100101001000111000110011101101 , OperandB=1111111110000011010101011000101 , op_code=1000 , data_out=101001010010001110001100111011
# KERNEL: Right Shift Succcesfull
# KERNEL: -------------Generator Class Signals---------------
# KERNEL: OperandA=1110100001010000010001010101001 , OperandB=11111001110011001111000101110 , op_code=110 , data_out=xxxxxxxxxxxxxxxxxxxxxxxxxxxxxxxxxxxxxxxxxxxxxxxxxxxxxxxxxxxxxxxx
# KERNEL: -------------Driver Class Signals---------------
# KERNEL: OperandA=1110100001010000010001010101001 , OperandB=11111001110011001111000101110 , op_code=110 , data_out=xxxxxxxxxxxxxxxxxxxxxxxxxxxxxxxxxxxxxxxxxxxxxxxxxxxxxxxxxxxxxxxx
# KERNEL: -------------Monitor Class Signals---------------
# KERNEL: OperandA=1110100001010000010001010101001 , OperandB=11111001110011001111000101110 , op_code=110 , data_out=10001011110101111101110101010110
# KERNEL: -------------Scoreboard Signals---------------
# KERNEL: OperandA=1110100001010000010001010101001 , OperandB=11111001110011001111000101110 , op_code=110 , data_out=10001011110101111101110101010110
# KERNEL: NOT Operation Succesfull
# KERNEL: -------------Generator Class Signals---------------
# KERNEL: OperandA=11100100001000001111010100110111 , OperandB=11111111111010101000000011010101 , op_code=1 , data_out=xxxxxxxxxxxxxxxxxxxxxxxxxxxxxxxxxxxxxxxxxxxxxxxxxxxxxxxxxxxxxxxx
# KERNEL: -------------Driver Class Signals---------------
# KERNEL: OperandA=11100100001000001111010100110111 , OperandB=11111111111010101000000011010101 , op_code=1 , data_out=xxxxxxxxxxxxxxxxxxxxxxxxxxxxxxxxxxxxxxxxxxxxxxxxxxxxxxxxxxxxxxxx
# KERNEL: -------------Monitor Class Signals---------------
# KERNEL: OperandA=11100100001000001111010100110111 , OperandB=11111111111010101000000011010101 , op_code=1 , data_out=1111111111111111111111111111111111100100001101100111010001100010
# KERNEL: -------------Scoreboard Signals---------------
# KERNEL: OperandA=11100100001000001111010100110111 , OperandB=11111111111010101000000011010101 , op_code=1 , data_out=1111111111111111111111111111111111100100001101100111010001100010
# KERNEL: Subtraction Succesfull
# KERNEL: -------------Generator Class Signals---------------
# KERNEL: OperandA=11110100101001110000001010110111 , OperandB=1110010111100010100001111000100 , op_code=1 , data_out=xxxxxxxxxxxxxxxxxxxxxxxxxxxxxxxxxxxxxxxxxxxxxxxxxxxxxxxxxxxxxxxx
# KERNEL: -------------Driver Class Signals---------------
# KERNEL: OperandA=11110100101001110000001010110111 , OperandB=1110010111100010100001111000100 , op_code=1 , data_out=xxxxxxxxxxxxxxxxxxxxxxxxxxxxxxxxxxxxxxxxxxxxxxxxxxxxxxxxxxxxxxxx
# KERNEL: -------------Monitor Class Signals---------------
# KERNEL: OperandA=11110100101001110000001010110111 , OperandB=1110010111100010100001111000100 , op_code=1 , data_out=10000001101101011011111011110011
# KERNEL: -------------Scoreboard Signals---------------
# KERNEL: OperandA=11110100101001110000001010110111 , OperandB=1110010111100010100001111000100 , op_code=1 , data_out=10000001101101011011111011110011
# KERNEL: Subtraction Succesfull
# KERNEL: -------------Generator Class Signals---------------
# KERNEL: OperandA=1100000101010011010101010001110 , OperandB=101110001011010000001101000011 , op_code=1 , data_out=xxxxxxxxxxxxxxxxxxxxxxxxxxxxxxxxxxxxxxxxxxxxxxxxxxxxxxxxxxxxxxxx
# KERNEL: -------------Driver Class Signals---------------
# KERNEL: OperandA=1100000101010011010101010001110 , OperandB=101110001011010000001101000011 , op_code=1 , data_out=xxxxxxxxxxxxxxxxxxxxxxxxxxxxxxxxxxxxxxxxxxxxxxxxxxxxxxxxxxxxxxxx
# KERNEL: -------------Monitor Class Signals---------------
# KERNEL: OperandA=1100000101010011010101010001110 , OperandB=101110001011010000001101000011 , op_code=1 , data_out=110010011111001010011101001011
# KERNEL: -------------Scoreboard Signals---------------
# KERNEL: OperandA=1100000101010011010101010001110 , OperandB=101110001011010000001101000011 , op_code=1 , data_out=110010011111001010011101001011
# KERNEL: Subtraction Succesfull
# KERNEL: -------------Generator Class Signals---------------
# KERNEL: OperandA=11011010000110001011000001100101 , OperandB=10111011110110110010000001110101 , op_code=10 , data_out=xxxxxxxxxxxxxxxxxxxxxxxxxxxxxxxxxxxxxxxxxxxxxxxxxxxxxxxxxxxxxxxx
# KERNEL: -------------Driver Class Signals---------------
# KERNEL: OperandA=11011010000110001011000001100101 , OperandB=10111011110110110010000001110101 , op_code=10 , data_out=xxxxxxxxxxxxxxxxxxxxxxxxxxxxxxxxxxxxxxxxxxxxxxxxxxxxxxxxxxxxxxxx
# KERNEL: -------------Monitor Class Signals---------------
# KERNEL: OperandA=11011010000110001011000001100101 , OperandB=10111011110110110010000001110101 , op_code=10 , data_out=1010000000001010101101111001111101110000101111000011111000101001
# KERNEL: -------------Scoreboard Signals---------------
# KERNEL: OperandA=11011010000110001011000001100101 , OperandB=10111011110110110010000001110101 , op_code=10 , data_out=1010000000001010101101111001111101110000101111000011111000101001
# KERNEL: Multiplication Successfull
# RUNTIME: Info: RUNTIME_0068 testbench.sv (27): $finish called.
# KERNEL: Time: 1 us,  Iteration: 0,  Instance: /tb_top,  Process: @INITIAL#22_1@.
# KERNEL: stopped at time: 1 us
# VSIM: Simulation has finished. There are no more test vectors to simulate.
# VSIM: Simulation has finished.
Done
